<?xml version="1.0" encoding="UTF-8" standalone="no"?>
<!-- Created with Inkscape (http://www.inkscape.org/) -->

<svg
        xmlns:inkscape="http://www.inkscape.org/namespaces/inkscape"
        xmlns:sodipodi="http://sodipodi.sourceforge.net/DTD/sodipodi-0.dtd"
        width="68.621132mm"
        height="78.379189mm"
        viewBox="0 0 68.621132 78.379189"
        version="1.1"
        id="svg5"
        inkscape:export-filename="favicon-96x96.png"
        inkscape:export-xdpi="31.110001"
        inkscape:export-ydpi="31.110001"
        inkscape:version="1.2.2 (b0a8486541, 2022-12-01)"
        sodipodi:docname="logo-lecanal.svg"
        xmlns="http://www.w3.org/2000/svg"
>
  <sodipodi:namedview
     id="namedview7"
     pagecolor="#ffffff"
     bordercolor="#666666"
     borderopacity="1.0"
     inkscape:showpageshadow="2"
     inkscape:pageopacity="0.0"
     inkscape:pagecheckerboard="true"
     inkscape:deskcolor="#d1d1d1"
     inkscape:document-units="mm"
     showgrid="false"
     showguides="true"
     inkscape:lockguides="false"
     inkscape:zoom="2.0507435"
     inkscape:cx="272.58407"
     inkscape:cy="252.83513"
     inkscape:window-width="2560"
     inkscape:window-height="1371"
     inkscape:window-x="1920"
     inkscape:window-y="32"
     inkscape:window-maximized="1"
     inkscape:current-layer="layer1">
    <sodipodi:guide
            position="-18.2338,-0.17217287"
       orientation="0,-1"
       id="guide1013"
       inkscape:locked="false" />
    <sodipodi:guide
            position="12.449249,3.2535971"
       orientation="1,0"
       id="guide1015"
       inkscape:locked="false" />
    <sodipodi:guide
            position="19.896591,17.999337"
       orientation="0,-1"
       id="guide1017"
       inkscape:locked="false" />
    <sodipodi:guide
            position="44.390645,-47.089652"
       orientation="0,-1"
       id="guide1301"
       inkscape:locked="false" />
    <sodipodi:guide
            position="53.292899,-38.574453"
       orientation="1,0"
       id="guide1303"
       inkscape:locked="false" />
  </sodipodi:namedview>
  <defs
     id="defs2" />
  <g
     inkscape:label="Calque 1"
     inkscape:groupmode="layer"
     id="layer1"
     transform="translate(-53.5342,-61.607609)">
    <path
       id="path111"
       style="fill:#cc5a28;fill-opacity:1;fill-rule:evenodd;stroke-width:0.264583;image-rendering:optimizeQuality"
       d="M 87.844767,61.607609 A 34.310593,34.310593 0 0 0 53.5342,95.918176 34.310593,34.310593 0 0 0 65.834224,122.21115 V 139.9868 L 76.966361,128.43712 A 34.310593,34.310593 0 0 0 87.844767,130.22926 34.310593,34.310593 0 0 0 122.15533,95.918176 34.310593,34.310593 0 0 0 87.844767,61.607609 Z">
      <title
         id="title890">BG</title>
    </path>
    <path
       id="path1246"
       style="color:#000000;fill:#000000;fill-rule:evenodd;stroke:#000000;stroke-width:2.3;stroke-linecap:square;stroke-dasharray:none;stroke-opacity:1"
       d="m 89.246909,75.198186 c -11.793648,0 -21.417811,9.62417 -21.417811,21.41781 0,11.793654 9.624163,21.419884 21.417811,21.419884 7.14261,0 13.489251,-3.53168 17.384991,-8.9364 l -4.80126,-3.54087 c -2.787901,3.92701 -7.373481,6.47712 -12.583731,6.47712 -8.551014,0 -15.418176,-6.8687 -15.418177,-15.419734 0,-8.55101 6.867163,-15.41818 15.418177,-15.41818 4.89447,0 9.23703,2.25085 12.056631,5.77846 l 4.66742,-3.71295 c -3.93153,-4.91005 -9.972141,-8.06514 -16.724051,-8.06514 z" />
  </g>
</svg>
